email;logo_sponsor
dcrome0@wikispaces.com;http://dummyimage.com/216x235.png/dddddd/000000
cpaur1@ihg.com;http://dummyimage.com/203x245.bmp/cc0000/ffffff
lsweet2@salon.com;http://dummyimage.com/203x204.png/dddddd/000000
mwyard3@dagondesign.com;http://dummyimage.com/195x100.jpg/5fa2dd/ffffff
kdruce4@smugmug.com;http://dummyimage.com/220x221.bmp/dddddd/000000
gcalvie5@kickstarter.com;http://dummyimage.com/210x123.jpg/5fa2dd/ffffff
vcaroli6@mapy.cz;http://dummyimage.com/250x159.bmp/cc0000/ffffff
wbagworth7@bloomberg.com;http://dummyimage.com/223x192.png/5fa2dd/ffffff
jmcroberts8@opera.com;http://dummyimage.com/206x123.png/cc0000/ffffff
bpallent9@baidu.com;http://dummyimage.com/213x237.jpg/dddddd/000000
eblancowea@alibaba.com;http://dummyimage.com/169x135.jpg/dddddd/000000
aaddionisiob@princeton.edu;http://dummyimage.com/111x227.jpg/cc0000/ffffff
lpitkethlyc@tiny.cc;http://dummyimage.com/120x184.png/5fa2dd/ffffff
mstickingsd@simplemachines.org;http://dummyimage.com/105x116.bmp/cc0000/ffffff
mgrzesiewicze@histats.com;http://dummyimage.com/121x226.jpg/ff4444/ffffff
zlosebief@disqus.com;http://dummyimage.com/136x165.jpg/5fa2dd/ffffff
afoneg@biglobe.ne.jp;http://dummyimage.com/136x168.png/dddddd/000000
akistingh@imgur.com;http://dummyimage.com/107x249.bmp/ff4444/ffffff
cmillsomi@so-net.ne.jp;http://dummyimage.com/107x231.bmp/5fa2dd/ffffff
bcroanj@pbs.org;http://dummyimage.com/234x183.bmp/ff4444/ffffff
striggk@i2i.jp;http://dummyimage.com/228x196.jpg/ff4444/ffffff
gjirikl@sciencedirect.com;http://dummyimage.com/231x154.bmp/cc0000/ffffff
bellardm@harvard.edu;http://dummyimage.com/124x147.png/cc0000/ffffff
svanichkovn@phpbb.com;http://dummyimage.com/162x113.png/cc0000/ffffff
tcurthoyso@arstechnica.com;http://dummyimage.com/151x170.png/cc0000/ffffff
